Mask a proportion of all visits: A function for simulating a fixed effort validation design. — mask_FE_all_visits • ValidationExplorer
…
FE_data %>% 
  group_by(site, visit) %>% 
  summarize(
    prop_validated = sum(!is.na(true_spp))/n()
  )
#> `summarise()` has regrouped the output.
#> ℹ Summaries were computed grouped by site and visit.
#> ℹ Output is grouped by site.
#> ℹ Use `summarise(.groups = "drop_last")` to silence this message.
#> ℹ Use `summarise(.by = c(site, visit))` for per-operation grouping
#>   (`?dplyr::dplyr_by`) instead.
#> # A tibble: 400 × 3
#> # Groups:   site [100]
#>     site visit prop_validated
#>    <int> <int>          <dbl>
#>  1     1     1          0.1  
#>  2     1     2          0.102
#>  3     1     3          0.102
#>  4     1     4          0.1  
#>  5     2     1          0.101
#>  6     2     2          0.102
#>  7     2     3          0.1  
#>  8     2     4          0.101
#>  9     3     1          0.100
#> 10     3     2          0.100
#> # ℹ 390 more rows
…
