Vignette: Simulation studies with `ValidationExplorer` • ValidationExplorer
…
# validation scenario 1, dataset 1
sim_data_with_conf_limits$masked_dfs[[1]][[1]] %>% 
  group_by(site, visit) %>% 
  summarize(prop_confirmable = unique(prop_confirmable)) %>% 
  print(n = 10)

## `summarise()` has regrouped the output.
## ℹ Summaries were computed grouped by site and visit.
## ℹ Output is grouped by site.
## ℹ Use `summarise(.groups = "drop_last")` to silence this message.
## ℹ Use `summarise(.by = c(site, visit))` for per-operation grouping
##   (`?dplyr::dplyr_by`) instead.

## # A tibble: 120 × 3
## # Groups:   site [30]
##     site visit prop_confirmable
##    <int> <int>            <dbl>
##  1     1     1            0.496
##  2     1     2            0.440
##  3     1     3            0.566
##  4     1     4            0.486
##  5     2     1            0.426
##  6     2     2            0.556
##  7     2     3            0.511
##  8     2     4            0.429
##  9     3     1            0.513
## 10     3     2            0.493
## # ℹ 110 more rows
…
